{
  "items": [
    {
      "count": 2528908,
      "name": "javascript"
    },
    {
      "count": 2192301,
      "name": "python"
    },
    {
      "count": 1917363,
      "name": "java"
    },
    {
      "count": 1615010,
      "name": "c#"
    },
    {
      "count": 1464464,
      "name": "php"
    },
    {
      "count": 1417251,
      "name": "android"
    },
    {
      "count": 1187394,
      "name": "html"
    },
    {
      "count": 1034851,
      "name": "jquery"
    },
    {
      "count": 806745,
      "name": "c++"
    },
    {
      "count": 804244,
      "name": "css"
    },
    {
      "count": 687255,
      "name": "ios"
    },
    {
      "count": 670744,
      "name": "sql"
    },
    {
      "count": 662033,
      "name": "mysql"
    },
    {
      "count": 505565,
      "name": "r"
    },
    {
      "count": 476724,
      "name": "reactjs"
    },
    {
      "count": 472046,
      "name": "node.js"
    },
    {
      "count": 416692,
      "name": "arrays"
    },
    {
      "count": 403916,
      "name": "c"
    },
    {
      "count": 374634,
      "name": "asp.net"
    },
    {
      "count": 360349,
      "name": "json"
    },
    {
      "count": 343665,
      "name": "python-3.x"
    },
    {
      "count": 338052,
      "name": "ruby-on-rails"
    },
    {
      "count": 337889,
      "name": ".net"
    },
    {
      "count": 334519,
      "name": "sql-server"
    },
    {
      "count": 333372,
      "name": "swift"
    },
    {
      "count": 311821,
      "name": "django"
    },
    {
      "count": 304083,
      "name": "angular"
    },
    {
      "count": 292329,
      "name": "objective-c"
    },
    {
      "count": 286650,
      "name": "pandas"
    },
    {
      "count": 286513,
      "name": "excel"
    }
  ],
  "has_more": true,
  "quota_max": 10000,
  "quota_remaining": 9804,
  "page": 1,
  "page_size": 30,
  "total": 65798
}